,ID,Opinião,Sentimento
0,182,"Muito bom!",Positivo
1,183,"amei!",Positivo
2,184,"amei!",Positivo
3,185,"Teste com Internet",Neutro
4,186,"Testando com internet",Neutro
5,187,"Teste sem Internet",Neutro
6,188,"Testando sem internet",Neutro
7,189,"Teste sem Internet",Neutro
8,190,"Teste com Internet",Neutro
9,191,"Teste 1",Neutro
10,192,"Teste 2",Neutro
11,193,"Teste 3",Neutro
12,194,"Teste 2",Neutro
13,195,"Teste 1",Neutro
14,196,"Legal",Positivo
15,197,"Teste sem Internet",Neutro
16,198,"Teste 1 ok",Neutro
17,199,"Teste 2 feito",Neutro
18,200,"Evento teste",Neutro
19,201,"Testando sem internet Edson",Neutro
20,202,"Com internet",Neutro
21,203,"Teste ter",Neutro
22,204,"Teste ter",Neutro
23,205,"Teste de opiniao",Neutro
24,206,"Teste quarta manh",Neutro
25,207,"Teste tarde feito",Neutro
26,208,"Funcionando",Neutro
27,209,"Teste opiniao 123",Neutro
28,210,"1)/ 2) Ao voltar para o menu principal no meio da cria",Neutro
29,211,"Sem internet",Neutro
30,212,"Altas expectativas para o evento desse ano.",Positivo
31,213,"Ansioso pelo inicio do evento!",Positivo
32,214,"Altas expectativas para o evento desse ano.",Positivo
33,215,"Ziviani ir",Neutro
34,216,"Ziviani ir",Neutro
35,217,"Ainda n",Neutro
36,218,"Muito barulho!",Negativo
37,219,"Esse app t",Neutro
38,220,"Meu c",Neutro
39,221,"Coloca Metallica.",Neutro
40,222,"Tudo bem organizado e funcionando muito  bem",Positivo
41,223,"Toca Ra",Neutro
42,224,"Toca Ra",Neutro
43,225,"Toca Ra",Neutro
44,226,"Toca Ra",Neutro
45,227,"Toca Ra",Neutro
46,228,"Bem legal o APP ta quase melhor que o da Campus Party, só falta disponibilidade iOS",Positivo
47,229,"At",Neutro
48,230,"Ainda acho que deveria tocar Ra",Neutro
49,231,"E Queen nem isso rola?",Neutro
50,232,"E Queen nem isso rola?",Neutro
51,233,"Ansiedade aumentou muito depois que eu descobri que o Nivio Ziviani veio dar palestra!!!!",Positivo
52,234,"Agora sim vai começar",Neutro
53,235,"Atrasou o começo",Negativo
54,236,"Mesmo com 20 minutos de atraso estou super animado pela palestra!",Positivo
55,237,"#HoraDoHino",Neutro
56,238,"Quero esses brindes.",Neutro
57,239,"Quero esses brindes.",Neutro
58,240,"Toca Raul",Neutro
59,241,"Nacif em todas!   auahsuajsjauzja",Positivo
60,242,"Oii Mota",Neutro
61,243,"5 anos j",Neutro
62,244,"Bora NIVIOOOO!!!!!!",Positivo
63,245,"Go N",Neutro
64,246,"Boa iluminação",Positivo
65,247,"Quero surfar essa onda de aprendizado de máquina",Positivo
66,248,"Bacana",Positivo
67,249,"Opinião",Neutro
68,250,"Criar um rede neural para dizer seu vou formar algum dia.",Neutro
69,251,"Quero ver fazer aprendizado com Darksouls. #Ziviani",Neutro
70,252,"Quero ver fazer aprendizado com Darksouls. #Ziviani",Neutro
71,253,"Quero ver fazer aprendizado com Darksouls. #Ziviani",Neutro
72,254,"Quero ver fazer aprendizado com Darksouls. #Ziviani",Neutro
73,255,"Quero ver fazer aprendizado com Darksouls. #Ziviani",Neutro
74,256,"Quero ver fazer aprendizado com Darksouls. #Ziviani",Neutro
75,257,"Quero ver fazer aprendizado com Darksouls. #Ziviani",Neutro
76,258,"Quero ver fazer aprendizado com Darksouls. #Ziviani",Neutro
77,259,"Quero ver fazer aprendizado com Darksouls. #Ziviani",Neutro
78,260,"Thiago Silva #medo #choro",Negativo
79,261,"Thiago Silva #medo #choro",Negativo
80,262,"Thiago Silva #medo #choro",Negativo
81,263,"Deviam utilizar rede neural para traduzir os textos do menino perdido do Acre.",Neutro
82,264,"Som um pouco baixo no fundo da sala",Negativo
83,265,"Deviam utilizar rede neural para traduzir os textos do menino perdido do Acre.",Neutro
84,266,"Deviam utilizar rede neural para traduzir os textos do menino perdido do Acre.",Neutro
85,267,"Deviam utilizar rede neural para traduzir os textos do menino perdido do Acre.",Neutro
86,268,"Deviam utilizar rede neural para traduzir os textos do menino perdido do Acre.",Neutro
87,269,"Deviam utilizar rede neural para traduzir os textos do menino perdido do Acre.",Neutro
88,270,"N",Neutro
89,271,"Cara foda! #Ziviani",Positivo
90,272,"#ZivianiNaUFV",Neutro
91,273,"Rede neural  para compor m",Neutro
92,274,"Rede neural  para compor m",Neutro
93,275,"Otima palestra do professor ziviani",Positivo
94,276,"nan",Neutro
95,277,"2099 era das máquinas",Neutro
96,278,"2099 era das máquinas",Neutro
97,279,"2099 era das máquinas",Neutro
98,280,"2099 era das máquinas",Neutro
99,281,"2099 era das máquinas",Neutro
100,282,"2099 era das máquinas",Neutro
101,283,"O tempo de palestra pode ser estendido",Neutro
102,284,"Que isso vei loucura minoria seremos",Neutro
103,285,"Palestra de abertura muito interessante com um palestrante que domina o assunto!!! Muito bacana esta palestra.",Positivo
104,286,"Palestra muito boa do Dr. Ziviani.",Positivo
105,287,"Palestra muito boa do Dr. Ziviani.",Positivo
106,288,"Palestra muito boa do Dr. Ziviani.",Positivo
107,289,"Gostei da palestra do ziviani",Positivo
108,290,"nan",Neutro
109,291,"Rede neural se tornou bem mais interessante depois da palestra do Pr. Ziviani.",Positivo
110,292,"Rede neural se tornou bem mais interessante depois da palestra do Pr. Ziviani.",Positivo
111,293,"Rede neural se tornou bem mais interessante depois da palestra do Pr. Ziviani.",Positivo
112,294,"Rede neural se tornou bem mais interessante depois da palestra do Pr. Ziviani.",Positivo
113,295,"Rede neural se tornou bem mais interessante depois da palestra do Pr. Ziviani.",Positivo
114,296,"-Deus existe?-Ainda n",Neutro
115,297,"Podia melhor a parte sonora esta faltando um grave na caixa de som.",Negativo
116,298,"Atraso ao iniciar o evento mesa redonda.",Negativo
117,299,"Muito quente e muito barulho al",Negativo
118,300,"Hora de falar de interc",Neutro
119,301,"O ",Neutro
120,302,"A chamada estava horr",Negativo
121,303,"Audio dos palestrantes nao presenciais da mesa redonda estavam com eco",Negativo
122,304,"O audio aumenta e diminui durante a palestra",Negativo
123,305,"A temperatura ambiente nesse hor",Neutro
124,306,"A primeira v",Neutro
125,307,"Mesa redonda desse ano foi bem mais interessante pelo tema abordado, acho que todos os alunos t",Positivo
126,308,"Segunda palestra em rela",Neutro
127,309,"nan",Neutro
128,310,"nan",Neutro
129,311,"nan",Neutro
130,312,"Chris ",Neutro
131,313,"As cadeiras de plastico no fundo do salao estao muito pr",Neutro
132,314,"Se o Gull n",Neutro
133,315,"Drogas n",Neutro
134,316,"Estrangeiro ",Neutro
135,317,"Primeiro dia da SECOM foi sensacional!",Positivo
136,318,"Primeiro dia da SECOM foi sensacional!",Positivo
137,319,"Primeiro dia da SECOM foi sensacional!",Positivo
138,320,"Quem senta atr",Neutro
139,321,"A temperatura dentro do sal",Neutro
140,322,"Seria interessante se durante a fala do Augusto e Fredy pudesse aparecer eles em v",Positivo
141,323,"Os ventiladores atrapalham a sonoridade para os que sentam atr",Negativo
142,324,"Pois os ventiladores fazem muito barulho",Negativo
143,325,"Primeiro dia conseguimos ter um bom rendimento de informa",Positivo
144,326,"Tudo em  ordem. Ate o momento!",Positivo
145,327,"Sobre o app: ao abriR a agenda e programa",Neutro
146,328,"Bem organizado a entrada no sal",Positivo
147,329,"Como avaliar o evento maratona se durante a maratona n",Neutro
148,330,"Como avaliar o evento maratona se durante a maratona n",Neutro
149,331,"Como avaliar o evento maratona se durante a maratona n",Neutro
150,332,"Como avaliar o evento maratona se durante a maratona n",Neutro
151,333,"Como avaliar o evento maratona se durante a maratona n",Neutro
152,334,"#Dia2",Neutro
153,335,"Como avaliar o evento maratona se durante a maratona n",Neutro
154,336,"#AnsiosoDia2",Positivo
155,337,"#VamoQueVamo",Positivo
156,338,"#VI_SECOM",Neutro
157,339,"O hor",Neutro
158,340,"Ansiedade pro segundo dia",Positivo
159,341,"Cria",Neutro
160,342,"Como avaliar o evento maratona, se durante a maratona n",Neutro
161,343,"Gogo_SECOM",Neutro
162,344,"Boraaa!!",Positivo
163,345,"Boa oportunidade de conhecer outra empresa de sucesso na SECOM.",Positivo
164,346,"Boa oportunidade de conhecer outra empresa de sucesso na SECOM.",Positivo
165,347,"Boa oportunidade de conhecer outra empresa de sucesso na SECOM.",Positivo
166,348,"Boa oportunidade de conhecer outra empresa de sucesso na SECOM.",Positivo
167,349,"N",Neutro
168,350,"Quebrando a cara estou eu na faculdade.",Negativo
169,351,"Durante o in",Neutro
170,352,"Os ventiladores continuam com som mais alto do que o som do palestrante, para quem senta perto do ventilador",Negativo
171,353,"O ambiente esta com cheiro de suor",Negativo
172,354,"Gostei da camisa do Andr",Positivo
173,355,"Quero ver ter consenso em trabalhos em grupo.",Neutro
174,356,"Quero ver ter consenso em trabalhos em grupo.",Neutro
175,357,"SetApp Empresa J",Neutro
176,358,"Preciso inventar um produto e vend",Neutro
177,359,"Esse aplicativo ",Neutro
178,360,"Altas expectativas para a pr",Positivo
179,361,"Atraso para iniciar todos os eventos... :/",Negativo
180,362,"SetApp melhor Empresa J",Positivo
181,363,"Muito boa a palestra sobre Inova",Positivo
182,364,"Aumenta o volume do microfone urgente !!!!",Negativo
183,365,"Som t",Neutro
184,366,"Volume da terceira palestra est",Neutro
185,367,"O audio estava muito baixo mas ja consertou",Neutro
186,368,"#VemPraSetApp",Neutro
187,369,"Palestras muito voltadas para o tema de StartUps empreendedorismo etc e pouco voltado a computa",Negativo
188,370,"Assunto muito importante hoje em dia. Big Data.",Positivo
189,371,"Letras do slide muito pequenas",Negativo
190,372,"Ao sentar em um lugar alcan",Neutro
191,373,"O lanche estava muito bom pena que era um s",Neutro
192,374,"Gostei da ideia do suco ter um tampa no copo! Muito mais higi",Positivo
193,375,"nan",Neutro
194,376,"nan",Neutro
195,377,"Muito calor",Negativo
196,378,"nan",Neutro
197,379,"Muito calor...",Negativo
198,380,"Muito importante e interessante as palestras.",Positivo
199,381,"SetApp",Neutro
200,382,"Muito calor",Negativo
201,383,"Palestra muito boa de Big Data.",Positivo
202,384,"Aguardando o ",Neutro
203,385,"Ansioso pelo minicurso",Positivo
204,386,"#Come",Neutro
205,387,"#AnsiosoPeloMinicurso",Positivo
206,388,"Um pouco de atraso",Negativo
207,389,"nan",Neutro
208,390,"Mas hoje tem brindes!",Positivo
209,391,"Mas hoje tem brindes!",Positivo
210,392,"Muito bacana o evento",Positivo
211,393,"Evento atrasou",Negativo
212,394,"Palestrantes atrasaram",Negativo
213,395,"#MESE melhor minicurso",Positivo
214,396,"Os novos question",Neutro
215,397,"Hora de brincar de empres",Positivo
216,398,"No final das contas do lucro bruto n",Neutro
217,399,"Bom",Positivo
218,400,"Eu queria uma ferrari um Rolex nunca pedi nada demais. Hahah",Positivo
219,401,"Buscar pre",Neutro
220,402,"Minicurso bombando o/",Positivo
221,403,"Nunca ouvi falar da Xiomi",Neutro
222,404,"Deveriamos aplicar isso minicuros de metodologias ",Neutro
223,405,"Hora de vender caneta. Porque caneta?",Neutro
224,406,"Treinar as minhas habilidades empresariais. #VamoTime",Positivo
225,407,"Um bom minicurso",Positivo
226,408,"Recomendaria este mini-curso para todos que pretendem seguir no ramo de empreendedorismo",Positivo
227,409,"O horario que deixaram os alunos almo",Neutro
228,410,"Ocorrendo problemas com o projetor no sal",Negativo
229,411,"A maratona poderia terminar mais cedo por causa do hor",Neutro
230,412,"O som est",Neutro
231,413,"J",Neutro
232,414,"J",Neutro
233,415,"T",Neutro
234,416,"Vamo que vamo simular mais empresas!!",Positivo
235,417,"Comentando aqui s",Neutro
236,418,"Comentando aqui s",Neutro
237,419,"Brinsk... To N",Neutro
238,420,"Adorando a Secom",Positivo
239,421,"Que se foda todo mundo dessa secom. PS: Gustavo Andrade 1",Neutro
240,422,"Minicurso 3 muito bom.",Positivo
241,423,"Excelente evento crescendo sempre.",Positivo
242,424,"nan",Neutro
243,425,"Melhor evento",Positivo
244,426,"Evento bom demais",Positivo
245,427,"E o aplicativo ",Neutro
246,428,"Atraso no encerramento do evento...",Negativo
247,429,"Se eu n",Neutro
248,430,"Opinei em tudo",Neutro
249,431,"O Mota deve t",Neutro
250,432,"Quero pr",Neutro
251,433,"Meu n",Neutro
252,434,"A",Neutro
253,435,"A",Neutro
254,436,"A",Neutro
255,437,"A",Neutro
256,438,"Da hora minicurso 3",Positivo
257,439,"Vou GANHEI esse sorteio",Positivo
258,440,"Vou ganhar por coment",Positivo
259,441,"Muito bom. Mesa redonda inovadora exatamente o assunto que eu queria ver. Principalmente eu que anseio em fazer p",Positivo
260,442,"Sensacional essa SECOM",Positivo
261,443,"uma das melhores secom da hist",Positivo
262,444,"Virada incr",Positivo
263,445,"O pr",Neutro
264,446,"Esse mini curso de empreendedorismo deveria ter muito mais vezes n",Positivo
265,447,"Se eu n",Neutro
266,448,"Pena que j",Neutro
267,449,"Quero pr",Neutro
268,450,"Quero brindes!",Positivo
269,451,"Muito legal a brincadeira do terceiro minicurso",Positivo
270,452,"Quem ganhou a maratona? Resultado n",Neutro
271,453,"Para finalizar o dia com chave de ouro fazer prova de direito",Positivo
272,454,"Podemos n",Neutro
273,455,"Pr",Neutro
274,456,"A",Neutro
275,457,"Um fone t",Neutro
276,458,"Ou um carregador port",Neutro
277,459,"M",Neutro
278,460,"Pr",Neutro
279,461,"Come",Neutro
280,462,"Foi ",Neutro
281,463,"Brindes",Neutro
282,464,"Melhor SECOM  o/",Positivo
283,465,"Brindes",Neutro
284,466,"Melhor SECOM de todas!",Positivo
285,467,"Brindes por favor",Neutro
286,468,"Minha bateria j",Neutro
287,469,"#VI SECOM_Melhor",Positivo
288,470,"Se eu n",Neutro
289,471,"Telefone est",Neutro
290,472,"Fabricio com vergonha",Neutro
291,473,"Maratona foi foda",Positivo
292,474,"Victor n",Neutro
293,475,"Queria ser boa para participar da maratona",Neutro
294,476,"Vai MADAM",Neutro
295,477,"Maratona",Neutro
296,478,"C acredita",Neutro
297,479,"Eita!",Neutro
298,480,"Queria um fone",Neutro
299,481,"Eu vou ganhar",Positivo
300,482,"Brindes",Neutro
301,483,"Mymobiconf",Neutro
302,484,"O BD vai cair",Negativo
303,485,"Melhor parte decis",Positivo
304,486,"Melhor mini-curso",Positivo
305,487,"Quero o liquidificador roubaram o meu l",Neutro
306,488,"Quero m",Neutro
307,489,"Se eu n",Neutro
308,490,"Vaai Motaaa",Positivo
309,491,"Mota",Neutro
310,492,"Ziviani",Neutro
311,493,"Brindes",Neutro
312,494,"Qualidadeees",Positivo
313,495,"No meu celular travou o app",Neutro
314,496,"Tem que ser eu",Neutro
315,497,"Eu quero brinde!!!",Positivo
316,498,"Por favor",Neutro
317,499,"Euuuuuuu",Neutro
318,500,"Esse programa t",Neutro
319,501,"Teste",Neutro
320,502,"Aaaa",Neutro
321,503,"Teste",Neutro
322,504,"Ssss",Neutro
323,505,"Ddss",Neutro
324,506,"Teste",Neutro
325,507,"Ssss",Neutro
326,508,"Vdfsd",Neutro
327,509,"Vdfsd",Neutro
328,510,"Teste",Neutro
329,511,"Teste2",Neutro
330,512,"Teste2",Neutro
331,513,"Teste 3",Neutro
332,514,"Teste 4",Neutro
333,515,"Teste 4",Neutro
334,516,"Teste 5",Neutro
335,517,"Teste 6",Neutro
336,518,"teste",Neutro
337,519,"Teste",Neutro
338,520,"É biscoito",Neutro
339,521,"Teste",Neutro
340,522,"Esse evento está ótimo!!!",Positivo
341,523,"Teste",Neutro
342,524,"O evento tá bom. O minicurso que eu escolhi tá correndo bem os cofee-break estão mais gostosos que os do ano passado e ainda estou no aguardo da maratona e da palestra.",Positivo
343,525,"Foi bem  tudo certo  inclusive a excelente motivadora palestra de Márcio hehe",Positivo
344,527,"Muito bom o evento palestras muito boas com bons profissionais qualificados",Positivo
345,530,"A camisa tá Show",Positivo
346,533,"Uhulllllllll",Positivo
347,534,"Que o evento seja mesmo um sucesso!",Positivo
348,535,"Evento de ótima qualidade  que tem a funcionalidade de abranger o conhecimento geral.",Positivo
349,536,"SetApp",Neutro
350,537,"Parabéns aos organizadores",Positivo
351,538,"Otimo evento!",Positivo
352,539,"Melhor EJ SetApp",Positivo
353,540,"Faltou aquele som suave e sentimental do piano",Neutro
354,541,"Gostei da blusa de Rei Leão",Positivo
355,543,"Não tem para IOS",Neutro
356,544,"Obrigada por apresentar sobre o mymobconf!",Positivo
357,545,"Essa logo da SetApp é muito topper",Positivo
358,546,"Não consegui enviar minhas respostas. Dizia que não tinha respondido todas as questões quando na verdade eu respondi.",Negativo
359,547,"Essa agenda é um salva vidas",Positivo
360,548,"SetApp arrebenta!",Positivo
361,549,"Evento da hr vlw setapp e professores envolvidos",Positivo
362,550,"A tela do tutorial deveriam ser exibidas na primeira vez q vc inicia o aplicativoou ter um botão na área principal",Neutro
363,551,"Para avaliar a cerimônia de abertura diferente dos outros eventos o conforto sonoro térmico e nota não estão inicialmente preenchidos",Neutro
364,552,"Q q a setapp fez?",Neutro
365,553,"Nao sei nada sobre futebol mesmo...kkk",Positivo
366,554,"Go! Go! SETAPP!",Positivo
367,555,"Esse cara é o cara",Positivo
368,556,"Wow prêmio do Google?? Uaaaa",Positivo
369,557,"Marcado vs mestrado. Justo",Neutro
370,559,"To achando bem legal!",Positivo
371,561,"De pedra para dados. Evoluímos bastante!",Positivo
372,562,"Minha opinião é com relação ao tutorial no inicio da 1a execução ficou muito extenso.Acho que ao invés de um tutorial só explicando todo o aplicativo deveria ter vários tutoriais pequenos quando o usuário acessar uma função especifica. Para isto é necessário que o aplicativo seja bastante intuitivo (o que nesse quesito o MyMobiConf é bastante já).",Positivo
373,563,"Ao votar e voltar a tela inicial e em seguida retornar a atividade tenho a opção de votar de novo como se eu não tivesse votado antes parece que o voto não está sendo registrado",Negativo
374,564,"Brasileiros não votam em propostas votam em pessoas",Neutro
375,565,"Tem partidos em excesso. Existem tantas ideologias politicas assim?",Neutro
376,566,"Desculpe pela tosse. O tempo não ta contribuindo",Negativo
377,567,"Stalkeando os deputados",Neutro
378,568,"Interessante",Positivo
379,569,"Dilma",Neutro
380,570,"Como diferenciaram o Brasil politico do Brasil não politico?",Neutro
381,571,"O aplicativo recebeu mudanças significativas! Show!",Positivo
382,572,"GG Dilma",Neutro
383,574,"Vai SetApp!!!!!",Positivo
384,575,"Bora xingar muito no Twitter",Negativo
385,576,"Uhull a SECOM começou! MyMobiConf pegando fogo. Quero ver a participação da SetApp ein!!!",Positivo
386,577,"Pior que tá não fica",Negativo
387,578,"Nunca ouvi falar de PMB",Neutro
388,579,"Partidos que nunca nem ouvi falar....",Neutro
389,580,"Aonde eu vejo a opinião alheia? Quero ver quem da SetApp tá brincando.",Neutro
390,581,"A camiseta ficou bem melhor incluindo o tamanho!",Positivo
391,582,"Será que alguém da SetApp vai ganhar brindes?",Neutro
392,583,"Parece marcas de supermercado.",Neutro
393,584,"2 é pouco. Mas 30 é de mais",Neutro
394,585,"Acho que a SetApp deveria criar um partido. Bora galera? Imagina PAS = Partido Acadêmico da SetApp",Positivo
395,586,"A Setapp é foda!",Positivo
396,587,"Eu sou daltônico não vou ver diferença entre verde e vermelho afff",Negativo
397,588,"Transparência!",Positivo
398,589,"Ih gente cadê o link para o Site do Evento vambora galera.",Neutro
399,590,"Bolsonaro e o outro são perfeitamente opostos",Neutro
400,592,"Ué já acabou a inscrição da Maratona de Programação? Já lotou todas as vagas? Queria participar. :(",Neutro
401,593,"To gostando da palestra",Positivo
402,594,"Cadê a rede de internet do evento? Liga pra SetApp pra ver se o Brandão consegue para vocês.",Negativo
403,595,"Muito informativa",Positivo
404,596,"Deputados brasileiros nos vetores ideologicos parecem confetes",Neutro
405,597,"Colorful",Neutro
406,598,"Doido de mais",Positivo
407,599,"Vai tudo pro PT",Neutro
408,600,"Palestra louca!!",Positivo
409,601,"Quero ver chegar no tema: FUTEBOL",Positivo
410,602,"O cara é um problema. E ciência da computação resolve problemas. Vamos resolver esse cara então",Positivo
411,603,"Será que vou ganhar prêmios?",Neutro
412,604,"PROFESSOR DANIEL estou opinando mas estou prestando devida atenção na Palestra",Neutro
413,605,"Camisa está super confortável",Positivo
414,606,"Nunca vi tanto gargicos assim na vida... #MedoDeGrafos",Negativo
415,607,"Bom... Imagino que se vê gráficos na matéria de Grafos...",Neutro
416,608,"DELTA??? MEU DEUS NEM LEMBRO DE BASKARA MAIS!!",Neutro
417,609,"Por favor MARCOS MOTTA não me xinge pelas opiniões",Neutro
418,610,"Tô só querendo testar o app",Neutro
419,611,"Jahaahahahha",Neutro
420,612,"Melhor que TWITTER E WPP esse myMobiConf",Positivo
421,613,"A palestra de abertura não tem nada a ver com o nosso curso de CDC. Sei que é importante discutir política mas não no nosso único evento anual de computação.",Negativo
422,614,"Quais serão os primeiros #ancioso",Positivo
423,615,"Melhor APP!!!!",Positivo
424,616,"Nuuuuuuu qnts dados!!! Meu deuss",Positivo
425,617,"Internet TOP",Positivo
426,618,"Quantos dados para absorver",Neutro
427,619,"Mas estou adorando a palestra",Positivo
428,620,"Bemmm cômico um partido militar junto com um socialista hahahahah",Positivo
429,621,"A Net caiu... E disse que qnd tiver Net vai enviar...",Negativo
430,622,"SetApo é foda!",Positivo
431,623,"<3 SetApp <3",Positivo
432,624,"Espero que a msg seja realmente enviada",Neutro
433,625,"Tô com várias pgt",Neutro
434,626,"Mas tô com vergonha",Neutro
435,627,"Boa pgt veterano",Positivo
436,628,"Boa resposta palestrante",Positivo
437,629,"Adriele melhor fotografa",Positivo
438,630,"Professores tirando fotinha hahaha",Positivo
439,631,"Faz pose aí Daniel hahahaha",Positivo
440,632,"O palestrante fala bem",Positivo
441,633,"Daniel todo no traje social da hora",Positivo
442,634,"Começando a sentir calor",Negativo
443,635,"Mas nada preocupante",Neutro
444,636,"Fala de LOL o povo acorda",Neutro
445,637,"Minha mão já está sussa de tanto pegar no celular....Calmaa nada de malícia gente hahahah",Positivo
446,638,"Aeeee futebol agoraa",Positivo
447,639,"Que específico!!",Neutro
448,640,"Norueguês???",Neutro
449,641,"Tô com medo de que não esteja enviando minhas msg",Negativo
450,642,"Eu ouvi aposta??? Jajaha",Positivo
451,643,"Poker??",Neutro
452,644,"Vamos jogar um poker?? Quem anima??",Positivo
453,645,"Vixee ele gaguejou bastante agora",Negativo
454,646,"Gaguejou novamente",Negativo
455,647,"Nuuuu o flash me chegou agora",Neutro
456,648,"O bom de ficar opinando eh que não dá sono",Neutro
457,649,"E tbm faz vc ficar prestando a atenção na Palestra",Neutro
458,650,"Vms indentificar !!!! UHULLL",Positivo
459,651,"Empate naoo!!!",Neutro
460,652,"Aí eh sem graça",Negativo
461,653,"Marcos motta lindooooo",Positivo
462,654,"Vixeee esqueci que ele pode ver quem enviou",Neutro
463,655,"Na brotheragen msm",Neutro
464,656,"Melhor app",Positivo
465,657,"#Qual a diferença???",Neutro
466,658,"Vms apostar!!!!",Positivo
467,659,"Como identificar boas equipes...",Positivo
468,660,"Quero sorvete",Neutro
469,661,"Queira sorvete",Neutro
470,662,"Será que o lanche vai tá bom??",Neutro
471,663,"OLOUCOOOOOOOOOOOOOO99",Positivo
472,664,"Calouro mitando",Positivo
473,665,"Esse aí tem coragem ahhHahahahah",Positivo
474,666,"Será que tô comentando muito???",Neutro
475,667,"Variância???",Neutro
476,668,"Nunca ouvi falar",Neutro
477,669,"Camisa top",Positivo
478,670,"Camisa 1000 grqu",Positivo
479,671,"30 equipes",Neutro
480,672,"Ah é aquele trem de regularidade ne",Neutro
481,673,"Vários termos técnicos",Neutro
482,674,"0.2 eh aleatório?",Neutro
483,675,"Eu não sej",Neutro
484,676,"Sei*",Neutro
485,677,"Variância real",Neutro
486,678,"Negativos??",Negativo
487,679,"Quanto mais prox de 0 mais regular.E quanto mais regular maior a probabilidade da tal equipe ganhar",Neutro
488,680,"Olá Marcos Motta",Positivo
489,681,"Afffff",Negativo
490,682,"Pensei que comentar dava vantagem",Neutro
491,683,"Triste com essa notícia",Negativo
492,684,"Queira ganhar algo",Neutro
493,685,"Que pena",Negativo
494,686,"Muito triste",Negativo
495,687,"Será que eu vou parar de comentar?",Neutro
496,688,"Veremos no próximo capítulo",Neutro
497,689,"Que campeonato louco esse",Positivo
498,690,"Vlw MARCOS",Positivo
499,691,"Ele acabou de me mostrar o tanto que eu comentei ahahahha",Positivo
500,692,"Às vezes eu escrevo errado...",Neutro
501,693,"Me desculpa gente",Positivo
502,694,"Será que vou ser mencionado com relação ao número de comentários no final da SECOM???",Neutro
503,695,"Seria dahora minerar esses dados de opinião",Positivo
504,696,"Tô começando a ter fome",Negativo
505,697,"Mais de 120 comentários em menos de 30 min eu acho",Neutro
506,698,"Almocei cedo...",Neutro
507,699,"U Hu lll",Positivo
508,700,"Mas quero continuar comentando",Positivo
509,701,"Esses números estão me dando sono",Negativo
510,702,"MAIOR DE MINAS",Positivo
511,703,"CRUZEIROOOOO",Positivo
512,704,"Nação AZUL",Positivo
513,705,"As eu gosto de apostar mano",Neutro
514,706,"Que pena que eh aleatória assim...",Neutro
515,707,"Falando em apostas...",Neutro
516,708,"Muito boa essa primeira palestra! #ForaPT",Positivo
517,709,"Quem quer jogar POKR???",Neutro
518,710,"VMS JOHAR POKER DANIEL",Neutro
519,711,"Até agora tudo tranquilo!",Positivo
520,712,"Fome",Negativo
521,713,"Não palestra",Negativo
522,714,"Não cheguei a dormir",Neutro
523,715,"Serenata de amor",Neutro
524,716,"Essa palestra do Pedro foi um espetáculo. Primeira vez que não me deu sono na abertura da Secom",Positivo
525,717,"SERENATA DE AMOR????",Neutro
526,718,"Deputados gastando com o amor",Neutro
527,719,"Gaste com o amor galera",Positivo
528,720,"O amor precisa da sua atenção",Positivo
529,721,"Deixa eles gente",Neutro
530,722,"#ForaPT",Neutro
531,723,"Principalmente financeira ahhahahhahahah",Positivo
532,724,"Bate palma galera",Positivo
533,725,"Aproveite o doce!",Positivo
534,726,"Alguém quer leitinho??? Altasbirras",Positivo
535,727,"Vou usar meu 3g pra comentar",Neutro
536,728,"Tô com fomeee",Negativo
537,729,"Abraço Rodrigo RUUU",Positivo
538,730,"Abraço não abre",Neutro
539,731,"Escrevi errado",Neutro
540,732,"O servidor vai ficar aberto até o final do evento",Neutro
541,733,"Vou comentar durante a noite",Neutro
542,734,"Vou pagar alguém pra comentar pra mim ahahhah",Positivo
543,735,"QUERO CUME",Neutro
544,736,"BACO FOI FEITA PRA COMER",Neutro
545,737,"BACO não BOCA",Neutro
546,738,"Será que eu tô sozinho nessa??",Neutro
547,739,"Queira se o que mais comentou",Neutro
548,740,"Quero ser o que**",Neutro
549,741,"Que chatice escrevi errado sempre",Negativo
550,742,"Mas pelo menos posso comentar corrigindo",Neutro
551,743,"Aí consigo mais comentários ahahhaha",Positivo
552,744,"Queria ficar mandando caracteres avulso",Neutro
553,745,"Tipo assim:",Neutro
554,746,"Sbhssb",Neutro
555,747,"Bshshsjsbsh",Neutro
556,748,"Hwhauajan",Neutro
557,749,"Hshshahab",Neutro
558,750,"Palestra bacana!",Positivo
559,751,"Palestra mto interessante.",Positivo
560,752,"Mas acho que seria injusto",Neutro
561,753,"Mas como não conta nada a minha opinião",Neutro
562,754,"Hshshsja",Neutro
563,755,"Espero que sejam pontuais no coffee break!",Positivo
564,756,"Hsshabn",Neutro
565,757,"Hahshahsh",Neutro
566,758,"Hajahahb",Neutro
567,759,"Babsnamam",Neutro
568,760,"Jsjsjaan",Neutro
569,761,"Iwjsjsbehejejken",Neutro
570,762,"COMER COMERR",Neutro
571,763,"Comer comer",Neutro
572,764,"Para poder crescer",Neutro
573,765,"15h open the R.U",Neutro
574,766,"Qual foi desse lanche??",Neutro
575,767,"Demorando pacass",Negativo
576,768,"Queira comer",Neutro
577,769,"Queria não quero!!!",Positivo
578,770,"Deveríamos fazer uma análise do Presidente da Setapp também prq ver se ele deve ser sair  hahahaha",Positivo
579,771,"7 minutos de atraso....",Negativo
580,772,"Show Uhul",Positivo
581,773,"A coxinha ta gostosa porém pequena e gordurosa",Neutro
582,774,"Disseram que ia ter café no lanche...",Neutro
583,775,"E fria",Neutro
584,776,"Quero cafeeeeeee",Neutro
585,777,"Mas mesmo sem café tá mt gostoso o lanche!",Positivo
586,778,"É o suco do R.U?",Neutro
587,779,"Aplicativo com certa frequência apresenta uma falha no carregamento da programação do evento.",Negativo
588,780,"Poxa faltou o Café no lanche. Mas pelo menos sobrou suco.",Neutro
589,781,"A aba Programacao demora a carregar.",Negativo
590,782,"Esta tendo um erro na pagina de perceiros",Negativo
591,783,"Fiquei sabendo que a SetApp vai fornecer o café no próximo break.",Neutro
592,784,"Mesa redonda sobre o q fazer após a graduação... Pq não fizeram uma mesa redonda sobre como sobreviver a graduação?",Neutro
593,785,"Aí Simm presida da SetApp",Positivo
594,786,"Na hora de avaliar uma atividade o botão remover atividade fica no lugar onde estaria o botão salvar se ele existisse. Isso confunde um pouco e eu cheguei clicar em remover atividade sem querer.",Negativo
595,787,"Assunto interessante na Mesa Redonda!",Positivo
596,788,"SetApp é a porta para o mercado de Trabalho !!",Positivo
597,789,"Setapp ajudando os formados!",Positivo
598,790,"Devíamos analisar o comportamento do presidente da SETAPP tbm pra ver se ele é da direito ou esquerda...",Neutro
599,791,"Melhor palestra ever kkkk",Positivo
600,793,"Ótimo tema para a mesa redonda!",Positivo
601,794,"Me diverti com a real história do Bragança!",Positivo
602,795,"Poderia ter um cafezinho no coffe break",Neutro
603,796,"A Secom tá Top UHull!!!",Positivo
604,797,"Quando vc faz as avaliações e sai da aplicação quando volta a sua avalição some e vc tem que fazer novamente...",Negativo
605,798,"Muito show! Palestras incríveis com profissionais qualificados do mercado e do meio acadêmico. Recomendo XD",Positivo
606,799,"Adorei os comentários do Rodrigo!",Positivo
607,800,"Treta!",Negativo
608,801,"Treta!",Negativo
609,802,"Essa secom rendeu de mais",Positivo
610,803,"Melhores comentários",Positivo
611,804,"Cada tapa",Neutro
612,805,"Amnah NGM VAI TÁ FELIZ",Negativo
613,806,"Liga o ventilador !!!!!!!!!!",Neutro
614,807,"MESA REDONDA FOI TOP",Positivo
615,808,"NAVIF VAI CASTIGAR HAHAHAHAHA",Positivo
616,809,"#MelhorMesaRedonda",Positivo
617,810,"#FPGA>>>>>>>>",Neutro
618,811,"NACIF VAI CASTIGAR",Neutro
619,812,"#FPGA>all",Neutro
620,813,"#TeamKaio",Neutro
621,814,"Mesa redonda muito bomm!!!!!!",Positivo
622,815,"Fugiu do assunto",Neutro
623,816,"#teamKaio",Neutro
624,817,"Diploma na mão",Positivo
625,818,"#TeamKaio #Felicidade",Positivo
626,819,"Isso que eu quero...",Positivo
627,820,"#FPGA está em ascensão!",Positivo
628,821,"Tô arrotando coxinha",Neutro
629,822,"Esse pessoal do mestrado não parece muito feliz",Negativo
630,823,"Que triste",Negativo
631,824,"Felicidade > Se matar de estudar",Positivo
632,825,"Nunca vou brincar com FPGA",Neutro
633,826,"Achei a galera do mercado mais feliz q a galera do mestrado... Chicote de patrão dói menos q chicote de orientador?",Neutro
634,827,"FPGA NEVERRRR",Neutro
635,828,"#SeguirOCoração",Positivo
636,829,"#SeguirOCoracao",Positivo
637,830,"MIL DESCULPAS NACIF MAS FPGA NEVER",Neutro
638,831,"TP 2 de OC vai ser em GO ? =)",Neutro
639,832,"MALSBAI GALERA DO HARDWARE",Neutro
640,833,"Mals aí***",Neutro
641,834,"#TPemGo",Neutro
642,835,"TP de OC em Go",Neutro
643,836,"Depois que você sai da prova você sabe fazer a prova - Bragança Lucas",Neutro
644,837,"BOA PGT PEDRO VULGO HAYLANDER ( não sei como escreve)",Positivo
645,838,"Quero comer de novo",Neutro
646,839,"Go a nova linguagem",Neutro
647,840,"Linguagem topppp",Positivo
648,841,"E os comentários estão como?",Neutro
649,842,"Ou a palavra bolsa???",Neutro
650,843,"Boas pgt hj na mesa redonda",Positivo
651,844,"Ouvi a palavra bolsa?",Neutro
652,845,"Mestrado ou mercado??",Neutro
653,846,"Quero um trabalho bem de boa",Neutro
654,847,"Sla",Neutro
655,848,"Ganhando 10 mil tá bom",Positivo
656,849,"Falou muito",Neutro
657,850,"Mas falou bonito",Positivo
658,851,"Hahahaha",Positivo
659,852,"Qnts comentários terei hj??",Neutro
660,853,"Settapp ta bem em",Positivo
661,854,"Tem que planejar o futuro ne!",Positivo
662,855,"Tem mercado para os dois perfis... Amém",Positivo
663,856,"SettApp",Neutro
664,857,"Se for pro mercado a gente começa por baixo mas fica muito tempo ou consegue subir rapidamente?",Neutro
665,858,"Que cara atarefado fico pensando como ele conseguiu",Neutro
666,859,"Belas dicas",Positivo
667,860,"Dou-lhe uma duas...hahaha",Positivo
668,861,"Já acabou o a mesa redonda??",Neutro
669,862,"Atualizar o LinkedIn...",Neutro
670,863,"A única resposta certa é o não",Negativo
671,864,"Ser confiante mas não arrogante. Gostei",Positivo
672,865,"Otimista sempre ; p",Positivo
673,866,"One of the hardest but not definitive decision.",Neutro
674,867,"Mesa redonda com discussões muito interessantes",Positivo
675,868,"Acho que o botão de voltar não devia ter o Voltar escrito. E na tela principal acho que o botão de menu deveria ficar do lada esquerdo mas só questão de convenção. Mas de toda forma o aplicativo tá funcionando muito bem.",Negativo
676,869,"Maratona boa em !!",Positivo
677,870,"Essa provinha da maratona... Tava mais fácil do que ano passado.",Positivo
678,871,"Motinha é possível dar uma nota para a atividade que ainda não ta aberta eu consegui dar 5 estrelas pra todas as atividades",Neutro
679,872,"Eh que começe a secommmmmm",Positivo
680,873,"Vms laaa",Neutro
681,874,"Vms que vms",Neutro
682,875,"Quero ver mais palestras",Positivo
683,876,"Mais tretas",Neutro
684,877,"Mais comentários",Neutro
685,878,"As músicas estão top UHull!!!",Positivo
686,879,"Mais tudooook",Positivo
687,880,"Quero ver o pai quebrar",Neutro
688,881,"A internet tá caindo muito",Negativo
689,882,"Vms que vms",Neutro
690,883,"Quero opinar",Positivo
691,884,"Quero sentir o aroma do conhecimento",Positivo
692,885,"Bjsss genteeee",Positivo
693,886,"Já deu 13",Neutro
694,887,"Vmmss GALERAAAA",Positivo
695,888,"QUANTS COMENTSRIOS MARCOS MOTTA????",Neutro
696,889,"Ahahhahaha",Positivo
697,890,"Secom",Neutro
698,891,"Secom",Neutro
699,892,"Secom",Neutro
700,893,"Secom",Neutro
701,894,"Secom",Neutro
702,895,"Secom",Neutro
703,896,"Secom",Neutro
704,897,"Secom",Neutro
705,898,"Secm",Neutro
706,899,"Secm",Neutro
707,900,"Scom",Neutro
708,901,"Secom",Neutro
709,902,"Bjsss pessoalll",Positivo
710,903,"Opaaa",Neutro
711,904,"Hahahahahah",Positivo
712,905,"Pessoal tiltando ja",Neutro
713,906,"Secom gentee",Neutro
714,907,"Vmss galera",Positivo
715,908,"Música top",Positivo
716,909,"Melhor djjj",Positivo
717,910,"O Gustavo não olha pra mim",Neutro
718,911,"Que pena",Negativo
719,912,"Opaaaa",Neutro
720,913,"Vmss galera",Positivo
721,914,"Quero flodar isso aqui",Neutro
722,915,"Opaaa",Neutro
723,916,"Ato",Neutro
724,917,"Eu comecei por causa dos pontso",Neutro
725,918,"Essa playlist ta zika",Positivo
726,919,"Sinto mitando",Positivo
727,920,"Eu tô mitsndo",Positivo
728,921,"Hello",Neutro
729,922,"Settapp representando aqui",Positivo
730,923,"Vm flodar",Neutro
731,924,"Upo",Neutro
732,925,"Upppp",Neutro
733,926,"Opaaa",Neutro
734,927,"Hello",Neutro
735,928,"Viva galera",Positivo
736,929,"Vm que vamo",Neutro
737,930,"Tô c medo",Negativo
738,931,"Sobre a paralisação",Neutro
739,932,"Nuuuu",Neutro
740,933,"12 horas pra baixar",Negativo
741,934,"Um negócio aqui",Neutro
742,935,"Com a Net do campus",Neutro
743,936,"Muita coisa",Neutro
744,937,"Vmssss",Neutro
745,938,"Vmsss",Neutro
746,939,"Vmsss",Neutro
747,940,"Vmsss",Neutro
748,941,"Vmsss",Neutro
749,942,"Vmsss",Neutro
750,943,"Vmss",Neutro
751,944,"Vmss",Neutro
752,945,"Vmss",Neutro
753,946,"Vmss",Neutro
754,947,"Vmss",Neutro
755,948,"Vnsss",Neutro
756,949,"Vnss",Neutro
757,950,"Quero Secom",Positivo
758,951,"Queira Secom",Positivo
759,952,"Que comece a secom",Positivo
760,953,"Vms galera",Positivo
761,954,"Vms pessoal",Positivo
762,955,"Hellooooo",Positivo
763,956,"Como vcs estão galera",Neutro
764,957,"Simbora",Positivo
765,958,"Simboraaa",Positivo
766,959,"VB msss",Neutro
767,960,"Opaaa",Neutro
768,961,"Opaaa",Neutro
769,962,"Hello",Neutro
770,963,"Opass",Neutro
771,964,"Opsass",Neutro
772,965,"Olaa",Neutro
773,966,"Tudo bem com vc?",Positivo
774,967,"Qual seu nome",Neutro
775,968,"Vc está jóia??",Positivo
776,969,"Eu tô jóia",Positivo
777,970,"E sua mão?",Neutro
778,971,"Esta machucada até hj?",Neutro
779,972,"Está demorando a se curar",Negativo
780,973,"Já esperimentou ir no médico?",Neutro
781,974,"Vai que eh sério",Neutro
782,975,"Eh bom se preocupar",Positivo
783,976,"Vms ver se vai mandar isso tudo...",Neutro
784,977,"Mandou??",Neutro
785,978,"Aew Sambatech",Positivo
786,979,"Samba Vídeos > Youtube",Positivo
787,980,"Samba Vídeos>>>>> All",Positivo
788,981,"Começando bem a palestra",Positivo
789,982,"Doido de maiss",Positivo
790,983,"Tá bem bacana",Positivo
791,984,"Negócio é experiência do usuário",Positivo
792,985,"Qual a diferença entre o SambaTech e o Hotmart?",Neutro
793,986,"Muito bom a palestra",Positivo
794,987,"Nós vamos.vender nosso produtos na SETAPP. vamos SetApp!!!!",Positivo
795,988,"Engenharia de software é top!!! #VivaOScrum",Positivo
796,989,"Palestra 1 - bem cansativa",Negativo
797,990,"Uhull supertop essa palestra.",Positivo
798,991,"Muito bom essa caneta de brinde da Avenue pode!",Positivo
799,992,"Rola a SETAPP fazer camiseta para o SELO?",Neutro
800,993,"Palestra 2. Interesting...!",Positivo
801,994,"Me contrata Avenue Code!",Positivo
802,995,"Bom saber que as disciplinas de engenharia de software estão bem de acordo com o q o mercado está pedindo no momento",Positivo
803,996,"Processos Ágeis vs Processos Prescritivos",Neutro
804,997,"Não estou conseguindo adicionar um minicurso a minha programação oq eu faço?",Negativo
805,998,"O Salão Nobre não comporta mais a SECOM",Negativo
806,999,"Mano que desânimo! Parece que tô assistindo aula de engenharia",Negativo
807,1000,"Pelo menos o palestrante é gato.",Neutro
808,1001,"Setapp confirma",Neutro
809,1002,"Hoje o dia foi show!!!! Coxinha TOP no lanche",Positivo
810,1003,"Nas próximas palestras tentar trazer pessoas do ramo de inteligência artificial",Positivo
811,1004,"Oo não tem a avaliação do ambiente na hora dos minicursos. Pede pra SetApp dar um jeito nesse big aí.",Negativo
812,1005,"divertido",Positivo
813,1006,"Tá daóra mas quero premiação",Neutro
814,1007,"Sugestão: poderia muito ter uma secom com palestras e mini cursos na área de projeto e desenvolvimento de jogos",Positivo
815,1008,"Playlist zika",Positivo
816,1009,"Falta o café no coffe break",Negativo
817,1010,"Brandão Hack",Neutro
818,1011,"Minicurso de pentest foi muito divertido!!!",Positivo
819,1012,"Hoje o dia está muito parecido com um sabado! Perfeito para ver palestras e fazer minicursos XD",Positivo
820,1013,"Uhull SetApp em peso no evento.",Positivo
821,1014,"O MyMobiConf foi com certeza o melhor app criado pelo Marcos.",Positivo
822,1015,"Só acho que as imagens dos botões estão um pouco achatados.",Neutro
823,1016,"Tô triste que a SetApp não mandou o café para o lanche.",Negativo
824,1017,"Poxa Brandão cadê o café?",Negativo
825,1018,"Excelente evento e lanches!",Positivo
826,1019,"Eu só quero ganhar sorteio",Neutro
827,1020,"Já fiz meu aplicativo... Posso vender ficar rico e ser feliz?",Positivo
828,1021,"Votem.no Tô perdido soluções tecnológicas.",Neutro
829,1022,"Tô Perdido Soluções Tecnológicas...",Neutro
830,1023,"Muito interessante e participativo.",Positivo
831,1024,"Melhor coffe break  de TDS os anos !!!!!",Positivo
832,1025,"Minicurso muita informção",Positivo
833,1026,"Jurados escolham minha equipe",Neutro
834,1027,"Eita gente cadê o resto do povo.",Neutro
835,1028,"Vamos ver se algum time da SetApp ganhou essa Secom!!!",Positivo
836,1029,"Pra não perder o costume todo ano o curso do salão nobre é o último a terminar....",Neutro
837,1030,"Quero brindes!",Positivo
838,1031,"Bora acabar",Positivo
839,1032,"Melhor Secom",Positivo
840,1033,"Bora sortear os brindes",Positivo
841,1034,"MARATONA COM QUALIDADE SETAPP!",Positivo
842,1035,"Melhor video",Positivo
843,1036,".",Neutro
844,1038,"O evento está muito bom",Positivo
845,1039,"Não sou capaz de opinar",Negativo
846,1043,"Não sou capaz de opina",Negativo
847,1044,"Não sou capaz de opinar",Negativo
848,1045,"Horas",Neutro
849,1046,"Testando",Neutro
850,1047,"Agora vai",Neutro
851,1048,"Ou não",Negativo
852,1049,"Tentativa 5",Neutro
853,1050,"Tentativa 6",Neutro
854,1051,"Tentativa 7",Neutro
855,1052,"Tentativa 8",Neutro
856,1053,"Tentativa 9",Neutro
857,1054,"Tentativa 10",Neutro
858,1055,"Teste 11",Neutro
859,1056,"Não sou capaz de opinar",Negativo
860,1057,"Teste 1",Neutro
861,1058,"Teste 2",Neutro
862,1060,"Não sou capaz de opinar",Negativo
863,1061,"Mas sou capaz de testar",Negativo
864,1062,"Enviou?",Neutro
865,1063,"Atualizando...",Neutro
866,1064,"Atualizando...",Neutro
867,1065,"Teste 12",Neutro
868,1066,"Lorem ipsum dolor sit amet etc etc etc etc ansdkasjfdf fafbjm f v q",Neutro
869,1067,"Lorem ipsum dolor sit amet Lorem ipsum dolor sit amet Lorem ipsum dolor sit amet Lorem ipsum dolor sit amet Lorem ipsum dolor sit amet Lorem ipsum dolor sit amet Lorem ipsum dolor sit amet",Neutro
870,1068,"É bolacha",Neutro
871,1069,"Gostei demais",Positivo
872,1070,"É bolacha!",Neutro
873,1071,"bla bla",Negativo
874,1072,"oopa",Neutro
875,1073,"testee",Neutro
876,1074,"ue",Neutro
877,1075,"tentando",Neutro
878,1076,"e la vamos nos",Neutro
879,1077,"ih nao deu",Negativo
880,1078,"gostei",Positivo
881,1079,"sem rede",Negativo
882,1080,"teste",Neutro
883,1081,"teste 2",Neutro
884,1082,"Lorem ipsum dolor sit amet consectetur adispicin elit ",Neutro
885,1083,"Nunc nec interdum libero. Vivamus non lacinia neque. Integer vitae leo mauris. Proim tempus dui et metus molestie",Neutro
886,1084,"teeeelaaaa",Neutro
887,1085,"bla bla",Negativo
888,1086,"mais mensagens",Neutro
889,1087,"asda",Neutro
890,1088,"aaaaa",Neutro
891,1089,"teste",Neutro
892,1090,"ttttttassss",Neutro
893,1091,"jajsaaa",Neutro
894,1092,"amskkaskamakmh",Neutro
895,1093,"ajsnmssm",Neutro
896,1094,"bsbsns",Neutro
897,1095,"vzbzj",Neutro
898,1096,"blabsjaa",Neutro
899,1097,"ajsjsjdjshdjejaj",Neutro
900,1098,"ujuyg",Neutro
901,1099,"akdks",Neutro
902,1100,"jdjssssss",Neutro
903,1101,"ahajsnsssssss",Neutro
904,1102,"ajsnsns",Neutro
905,1103,"nan",Neutro
906,1104,"nan",Neutro
907,1105,"nan",Neutro
908,1106,"a",Neutro
909,1107,"k",Neutro
910,1108,"a",Neutro
911,1109,"ab",Neutro
912,1110,"af",Neutro
913,1111,"ab",Neutro
914,1112,"Teste",Neutro
915,1113,"Etfd",Neutro
916,1114,"Teste",Neutro
917,1115,"Teste",Neutro
918,1116,"Aprendendo bastante com os problemas expostos nas palestras.",Positivo
919,1117,"A primeira palestra foi sensacional!",Positivo
920,1118,"Muito boa a experiência com desenvolvimento mobile trazida nas apresentações",Positivo
921,1119,"Poderiam mostrar mais frameworks na próxima edição...",Positivo
